{"notifications": [{"notification_id": 2524356, "label": "warning", "date": "2020-07-31T15:17:11.882", "message": "Cluster 34.224.39.240 license expires in 3.6 days", "tower_url": "https://34.224.39.240", "active": true, "code": "CLUSTER_LICENSE_EXPIRY"}, {"notification_id": 2524355, "label": "warning", "date": "2020-07-31T15:17:11.873", "message": "Cluster 158.177.221.83 license expires in 2.3 days", "tower_url": "https://158.177.221.83", "active": true, "code": "CLUSTER_LICENSE_EXPIRY"}, {"notification_id": 2524354, "label": "error", "date": "2020-07-31T15:17:11.866", "message": "Cluster towerhost license has expired.", "tower_url": "https://towerhost", "active": true, "code": "CLUSTER_LICENSE_EXPIRY"}, {"notification_id": 2524353, "label": "warning", "date": "2020-07-31T15:17:11.860", "message": "Cluster 13.232.104.177 license expires in 4.7 days", "tower_url": "https://13.232.104.177", "active": true, "code": "CLUSTER_LICENSE_EXPIRY"}, {"notification_id": 2524352, "label": "error", "date": "2020-07-31T15:17:11.774", "message": "Cluster towerhost license remaining host capacity is 0", "tower_url": "https://towerhost", "active": true, "code": "CLUSTER_LICENSE_HOST_LIMIT"}], "meta": {"count": 93}, "links": {"first": "/api/tower-analytics/notifications/?limit=5&offset=0", "last": "/api/tower-analytics/notifications/?limit=5&offset=90", "next": "/api/tower-analytics/notifications/?limit=5&offset=5", "prev": null}}
